[
    {
        "title": "Eternal-Twin",
        "link": "https://eternal-twin.net",
        "icon": "https://eternal-twin.net/assets/etwin_icon.svg",
        "items": [
            {
                "title": "Eternalfest",
                "link": "https://eternalfest.net"
            },
            {
                "title": "MyHordes",
                "link": "https://myhordes.eu",
                "icon": "https://myhordes.eu/build/images/favicon.a07654e3.ico"
            },
            {
                "title": "eMush",
                "link": "https://beta.emush.eternal-twin.net",
                "icon": "https://emush.eternaltwin.org/icon.ico"
            },
            {
                "title": "Eternal DinoRPG",
                "link": "https://dinorpg.eternaltwin.org"
            },
            {
                "title": "Neoparc",
                "link": "https://neoparc.eternal-twin.net"
            }
        ]
    },
    {
        "title": "Twinoid",
        "link": "https://twinoid.com",
        "icon": "https://data.twinoid.com/img/design/logo_icon_large.png",
        "items": [
            {
                "title": "Alphabounce",
                "link": "http://alphabounce.com"
            },
            {
                "title": "Arkadeo",
                "link": "http://arkadeo.com"
            },
            {
                "title": "Croquemotel (DE)",
                "link": "http://hotel.de.muxxu.com"
            },
            {
                "title": "Croquemotel (EN)",
                "link": "http://hotel.en.muxxu.com"
            },
            {
                "title": "Croquemotel (FR)",
                "link": "http://hotel.muxxu.com"
            },
            {
                "title": "Die Verdammten",
                "link": "http://www.dieverdammten.de"
            },
            {
                "title": "Die2nite",
                "link": "http://www.die2nite.com"
            },
            {
                "title": "DinoRPG (DE)",
                "link": "http://dinorpg.de",
                "icon": "dead"
            },
            {
                "title": "DinoRPG (EN)",
                "link": "http://en.dinorpg.com"
            },
            {
                "title": "DinoRPG (ES)",
                "link": "http://es.dinorpg.com"
            },
            {
                "title": "DinoRPG (FR)",
                "link": "http://dinorpg.com"
            },
            {
                "title": "El Bruto",
                "link": "http://elbruto.muxxu.com"
            },
            {
                "title": "Fever",
                "link": "http://fever.muxxu.com"
            },
            {
                "title": "FeverMap",
                "link": "http://fevermap.org"
            },
            {
                "title": "Hordes",
                "link": "http://www.hordes.fr"
            },
            {
                "title": "Intrusion",
                "link": "http://intrusion.muxxu.com"
            },
            {
                "title": "Kadokado",
                "link": "http://kadokado.com"
            },
            {
                "title": "Kingdom (DE)",
                "link": "http://kingdom.de.muxxu.com"
            },
            {
                "title": "Kingdom (EN)",
                "link": "http://kingdom.en.muxxu.com"
            },
            {
                "title": "Kingdom (FR)",
                "link": "http://kingdom.muxxu.com"
            },
            {
                "title": "Kube",
                "link": "http://kube.muxxu.com"
            },
            {
                "title": "La Brute",
                "link": "http://labrute.muxxu.com"
            },
            {
                "title": "Majority",
                "link": "http://majority.muxxu.com"
            },
            {
                "title": "Mein Brutalo",
                "link": "http://meinbrutalo.muxxu.com"
            },
            {
                "title": "Monster Hotel",
                "link": "http://monster-hotel.net"
            },
            {
                "title": "Motion-Ball 2",
                "link": "http://mb2.muxxu.com"
            },
            {
                "title": "Mush (EN)",
                "link": "http://mush.twinoid.com"
            },
            {
                "title": "Mush (ES)",
                "link": "http://mush.twinoid.es",
                "icon": "dead"
            },
            {
                "title": "Mush (FR)",
                "link": "http://mush.vg"
            },
            {
                "title": "MyBrute",
                "link": "http://mybrute.muxxu.com"
            },
            {
                "title": "Naturalchimie",
                "link": "http://naturalchimie.com"
            },
            {
                "title": "Odyssee",
                "link": "http://odyssey.muxxu.com"
            },
            {
                "title": "Rockfaller Journey",
                "link": "http://rockfaller.com"
            },
            {
                "title": "Snake (FR)",
                "link": "http://snake.muxxu.com"
            },
            {
                "title": "Snake (EN)",
                "link": "http://snake.en.muxxu.com"
            },
            {
                "title": "Snake (ES)",
                "link": "http://snake.es.muxxu.com"
            },
            {
                "title": "Snake (DE)",
                "link": "http://snake.de.muxxu.com"
            },
            {
                "title": "Street Writer",
                "link": "http://street-writer.com"
            },
            {
                "title": "Studio Quiz",
                "link": "http://quiz.muxxu.com"
            },
            {
                "title": "Teacher Story",
                "link": "http://teacher-story.com"
            },
            {
                "title": "Zombinoia",
                "link": "http://www.zombinoia.com"
            }
        ]
    },
    {
        "title": "Hammerfest",
        "link": "http://www.hammerfest.fr",
        "items": [
            {
                "title": "Hammerfest (FR)",
                "link": "http://www.hammerfest.fr"
            },
            {
                "title": "Hammerfest (EN)",
                "link": "http://www.hfest.net",
                "icon": "dead"
            },
            {
                "title": "Hammerfest (ES)",
                "link": "http://www.hammerfest.es",
                "icon": "dead"
            }
        ]
    },
    {
        "title": "Dinoparc",
        "link": "http://www.dinoparc.com",
        "items": [
            {
                "title": "Dinoparc (FR)",
                "link": "http://www.dinoparc.com"
            },
            {
                "title": "Dinoparc (EN)",
                "link": "http://en.dinoparc.com"
            },
            {
                "title": "Dinoparc (ES)",
                "link": "http://sp.dinoparc.com"
            }
        ]
    },
    {
        "title": "Motion-Twin",
        "link": "https://motion-twin.com",
        "icon": "",
        "items": [
            {
                "title": "Carapass",
                "link": "http://carapass.com"
            },
            {
                "title": "Croquemonster",
                "link": "http://croquemonster.com"
            },
            {
                "title": "Dinocard",
                "link": "http://dinocard.net"
            },
            {
                "title": "Hyperliner",
                "link": "http://hyperliner.com"
            },
            {
                "title": "Minitroopers (FR)",
                "link": "http://minitroopers.fr"
            },
            {
                "title": "Minitroopers (EN)",
                "link": "http://minitroopers.com"
            },
            {
                "title": "Minitroopers (ES)",
                "link": "http://minitroopers.es"
            },
            {
                "title": "Miniville (FR)",
                "link": "http://miniville.fr"
            },
            {
                "title": "MyMiniCity (EN)",
                "link": "http://myminicity.com"
            },
            {
                "title": "MyMiniCity (ES)",
                "link": "http://myminicity.es",
                "icon": "dead"
            },
            {
                "title": "Popotamo",
                "link": "http://www.popotamo.com"
            },
            {
                "title": "Skywar",
                "link": "http://skywar.net"
            }
        ]
    }
]
