[
    {
        "icon": "eternal-twin",
        "title": "Eternal-Twin",
        "link": "https://eternal-twin.net/",
        "items": [
            {
                "icon": "eternalfest",
                "title": "Eternalfest",
                "link": "https://eternalfest.net/"
            },
            {
                "icon": "hordes",
                "title": "MyHordes",
                "link": "https://myhordes.eu/"
            },
            {
                "icon": "mush",
                "title": "eMush",
                "link": "https://beta.emush.eternal-twin.net/"
            },
            {
                "icon": "dinorpg",
                "title": "Eternal DinoRPG",
                "link": "https://dinorpg.eternaltwin.org/"
            }
        ]
    },
    {
        "icon": "twinoid",
        "title": "Twinoid",
        "link": "https://twinoid.com/",
        "items": [
            {
                "icon": "alphabounce",
                "title": "Alphabounce",
                "link": "http://alphabounce.com/"
            },
            {
                "icon": "arkadeo",
                "title": "Arkadeo",
                "link": "http://arkadeo.com/"
            },
            {
                "icon": "croquemotel",
                "title": "Croquemotel (DE)",
                "link": "http://hotel.de.muxxu.com"
            },
            {
                "icon": "croquemotel",
                "title": "Croquemotel (EN)",
                "link": "http://hotel.en.muxxu.com"
            },
            {
                "icon": "croquemotel",
                "title": "Croquemotel (FR)",
                "link": "http://hotel.muxxu.com"
            },
            {
                "icon": "hordes",
                "title": "Die Verdammten",
                "link": "http://www.dieverdammten.de/"
            },
            {
                "icon": "hordes",
                "title": "Die2nite",
                "link": "http://www.die2nite.com/"
            },
            {
                "icon": "dinorpg",
                "title": "DinoRPG (DE)",
                "link": "http://dinorpg.de/"
            },
            {
                "icon": "dinorpg",
                "title": "DinoRPG (EN)",
                "link": "http://en.dinorpg.com/"
            },
            {
                "icon": "dinorpg",
                "title": "DinoRPG (ES)",
                "link": "http://es.dinorpg.com/"
            },
            {
                "icon": "dinorpg",
                "title": "DinoRPG (FR)",
                "link": "http://dinorpg.com/"
            },
            {
                "icon": "labrute",
                "title": "El Bruto",
                "link": "http://elbruto.muxxu.com/"
            },
            {
                "icon": "fever",
                "title": "Fever",
                "link": "http://fever.muxxu.com/"
            },
            {
                "icon": "fever",
                "title": "FeverMap",
                "link": "http://fevermap.org/"
            },
            {
                "icon": "hordes",
                "title": "Hordes",
                "link": "http://www.hordes.fr/"
            },
            {
                "icon": "intrusion",
                "title": "Intrusion",
                "link": "http://intrusion.muxxu.com/"
            },
            {
                "icon": "kadokado",
                "title": "Kadokado",
                "link": "http://kadokado.com/"
            },
            {
                "icon": "kingdom",
                "title": "Kingdom (DE)",
                "link": "http://kingdom.de.muxxu.com/"
            },
            {
                "icon": "kingdom",
                "title": "Kingdom (EN)",
                "link": "http://kingdom.en.muxxu.com/"
            },
            {
                "icon": "kingdom",
                "title": "Kingdom (FR)",
                "link": "http://kingdom.muxxu.com/"
            },
            {
                "icon": "kube",
                "title": "Kube",
                "link": "http://kube.muxxu.com/"
            },
            {
                "icon": "labrute",
                "title": "La Brute",
                "link": "http://labrute.muxxu.com/"
            },
            {
                "icon": "majority",
                "title": "Majority",
                "link": "http://majority.muxxu.com/"
            },
            {
                "icon": "labrute",
                "title": "Mein Brutalo",
                "link": "http://meinbrutalo.muxxu.com/"
            },
            {
                "icon": "monsterhotel",
                "title": "Monster Hotel",
                "link": "http://monster-hotel.net/"
            },
            {
                "icon": "motionball",
                "title": "Motion-Ball 2",
                "link": "http://mb2.muxxu.com/"
            },
            {
                "icon": "mush",
                "title": "Mush (EN)",
                "link": "http://mush.twinoid.com/"
            },
            {
                "icon": "mush",
                "title": "Mush (ES)",
                "link": "http://mush.twinoid.es/"
            },
            { "icon": "mush", "title": "Mush (FR)", "link": "http://mush.vg/" },
            {
                "icon": "labrute",
                "title": "MyBrute",
                "link": "http://mybrute.muxxu.com/"
            },
            {
                "icon": "naturalchimie",
                "title": "Naturalchimie",
                "link": "http://naturalchimie.com/"
            },
            {
                "icon": "odyssey",
                "title": "Odyssee",
                "link": "http://odyssey.muxxu.com/"
            },
            {
                "icon": "rockfaller",
                "title": "Rockfaller Journey",
                "link": "http://rockfaller.com/"
            },
            {
                "icon": "snake",
                "title": "Snake (FR)",
                "link": "http://snake.muxxu.com/"
            },
            {
                "icon": "snake",
                "title": "Snake (EN)",
                "link": "http://snake.en.muxxu.com/"
            },
            {
                "icon": "snake",
                "title": "Snake (ES)",
                "link": "http://snake.es.muxxu.com/"
            },
            {
                "icon": "snake",
                "title": "Snake (DE)",
                "link": "http://snake.de.muxxu.com/"
            },
            {
                "icon": "street-writer",
                "title": "Street Writer",
                "link": "http://street-writer.com/"
            },
            {
                "icon": "studioquiz",
                "title": "Studio Quiz",
                "link": "http://quiz.muxxu.com/"
            },
            {
                "icon": "teacher-story",
                "title": "Teacher Story",
                "link": "http://teacher-story.com/"
            },
            {
                "icon": "hordes",
                "title": "Zombinoia",
                "link": "http://www.zombinoia.com/"
            }
        ]
    },
    {
        "icon": "hammerfest",
        "title": "Hammerfest",
        "link": "http://www.hammerfest.fr/",
        "items": [
            {
                "icon": "hammerfest",
                "title": "Hammerfest (FR)",
                "link": "http://www.hammerfest.fr/"
            },
            {
                "icon": "hammerfest",
                "title": "Hammerfest (EN)",
                "link": "http://www.hfest.net/"
            },
            {
                "icon": "hammerfest",
                "title": "Hammerfest (ES)",
                "link": "http://www.hammerfest.es/"
            }
        ]
    },
    {
        "icon": "dinoparc",
        "title": "Dinoparc",
        "link": "http://www.dinoparc.com/",
        "items": [
            {
                "icon": "dinoparc",
                "title": "Dinoparc (FR)",
                "link": "http://www.dinoparc.com/"
            },
            {
                "icon": "dinoparc",
                "title": "Dinoparc (EN)",
                "link": "http://en.dinoparc.com/"
            },
            {
                "icon": "dinoparc",
                "title": "Dinoparc (ES)",
                "link": "http://sp.dinoparc.com/"
            }
        ]
    },
    {
        "icon": "motion-twin",
        "title": "Motion-Twin",
        "link": "https://motion-twin.com/",
        "items": [
            {
                "icon": "carapass",
                "title": "Carapass",
                "link": "http://carapass.com/"
            },
            {
                "icon": "croquemonster",
                "title": "Croquemonster",
                "link": "http://croquemonster.com/"
            },
            {
                "icon": "dinocard",
                "title": "Dinocard",
                "link": "http://dinocard.net/"
            },
            {
                "icon": "hyperliner",
                "title": "Hyperliner",
                "link": "http://hyperliner.com/"
            },
            {
                "icon": "minitroopers",
                "title": "Minitroopers (FR)",
                "link": "http://minitroopers.fr/"
            },
            {
                "icon": "minitroopers",
                "title": "Minitroopers (EN)",
                "link": "http://minitroopers.com/"
            },
            {
                "icon": "minitroopers",
                "title": "Minitroopers (ES)",
                "link": "http://minitroopers.es/"
            },
            {
                "icon": "miniville",
                "title": "Miniville (FR)",
                "link": "http://miniville.fr/"
            },
            {
                "icon": "miniville",
                "title": "MyMiniCity (EN)",
                "link": "http://myminicity.com/"
            },
            {
                "icon": "miniville",
                "title": "MyMiniCity (ES)",
                "link": "http://myminicity.es/"
            },
            {
                "icon": "popotamo",
                "title": "Popotamo",
                "link": "http://www.popotamo.com/"
            },
            {
                "icon": "skywar",
                "title": "Skywar",
                "link": "http://skywar.net/"
            }
        ]
    }
]
